{
  "title": "My Radar",
  "quadrants": [
    "platforms",
    "tools",
    "languages & frameworks",
    "techniques"
  ],
  "rings": [
    "adopt",
    "trial",
    "assess",
    "hold"
  ],
  "blips": [
    {
      "name": "Azure Managed SQL",
      "ring": "adopt",
      "quadrant": "platforms",
      "isNew": false,
      "description": "<p>Azure is a cloud platform which also provides managed SQL servers. For our current customers we use managed databases to build a data platform.</p>"
    },
    {
      "name": "Kubernetes",
      "ring": "trial",
      "quadrant": "platforms",
      "isNew": false,
      "description": "We are currently investigating about running our open source stack on Kubernetes."
    },
    {
      "name": "Databricks",
      "ring": "assess",
      "quadrant": "platforms",
      "isNew": false,
      "description": "For some customers we already work with Databricks for solutions in their infrastructure. However we are not yet sure to recommend it in greenfield situations."
    },
    {
      "name": "Azure Functions",
      "ring": "hold",
      "quadrant": "platforms",
      "isNew": false,
      "description": "<p>In the past we have build some data pipelines in Azure Functions. Due to complexity in the orchestration and monitoring of pipelines, we recommend to use other solutions for monitoring and scheduling pipelines.</p>"
    },
    {
      "name": "Poetry",
      "ring": "adopt",
      "quadrant": "tools",
      "isNew": false,
      "description": "<p><a href=\"https://python-poetry.org/\">Poetry</a> is a dependency and package manager for Python.</p>"
    },
    {
      "name": "Docker",
      "ring": "adopt",
      "quadrant": "tools",
      "isNew": false,
      "description": "Docker is a container runtime that we use for testing, packaging pipelines and CI/CD components."
    },
    {
      "name": "Semantic Release",
      "ring": "trial",
      "quadrant": "tools",
      "isNew": true,
      "description": "We use Semantic Release for a few of our projects to automate the release and release note generation."
    },
    {
      "name": "Pre-commit",
      "ring": "assess",
      "quadrant": "tools",
      "isNew": true,
      "description": "Pre-commit helps you to run some checks on your code before committing. We have implemented it for a few projects."
    },
    {
      "name": "Dagster",
      "ring": "trial",
      "quadrant": "tools",
      "isNew": true,
      "description": "<p><a href=\"https://dagster.io\">Dagster</a> is an orchestrator and potential alternative to Airflow.</p>"
    },
    {
      "name": "Python",
      "ring": "adopt",
      "quadrant": "languages & frameworks",
      "isNew": false,
      "description": "<p>Python is a programming language. Currently we use version 3.8.</p>"
    },
    {
      "name": "Terraform",
      "ring": "trial",
      "quadrant": "languages & frameworks",
      "isNew": false,
      "description": "Terraform is a language which can be used for IaC. Currently it is the preferred language for new projects that need Iac. We are still working on completing the guidelines on how to do it properly."
    },
    {
      "name": "dbt",
      "ring": "trial",
      "quadrant": "languages & frameworks",
      "isNew": true,
      "description": "<p>dbt stands for data build tool. It is a way to </p>"
    },
    {
      "name": "ARM templates",
      "ring": "hold",
      "quadrant": "languages & frameworks",
      "isNew": false,
      "description": "We have use ARM templates as IaC language for some projects in the past. The benefits of Terraform in terms of modularizing infrastructure, makes that we prefer Terraform as a tool for IaC."
    },
    {
      "name": "Lakehouse architecture",
      "ring": "trial",
      "quadrant": "techniques",
      "isNew": true,
      "description": "The Lakehouse is a new hybrid form between a data lake and data warehouse. It has the scalability characteristic of a data lake, while having the discoverability of a data warehouse. It is often realized by combining a query engine (Spark / Presto), file or blob storage (Azure Blob Storage) and metadata component (Hive)."
    },
    {
      "name": "Metrics store",
      "ring": "assess",
      "quadrant": "techniques",
      "isNew": true,
      "description": "<p>The metrics store is a concept where the definition of a business metric is separated from the visual (also called headless BI). An example is <a href=\"https://transform.co/\">Transform</a></p>"
    }
  ]
}